﻿{
    "database": {
        "host": "localhost",
        "port": 3306,
        "user": "root",
        "password": "root",
        "database": "bookers-database"
    },
    "secret": "THIS IS USED TO SIGN AND VERIFY JWT TOKENS, REPLACE IT WITH YOUR OWN SECRET, IT CAN BE ANY STRING"
}